\relax 
\@writefile{toc}{\contentsline {section}{\numberline {1}Overview of Technical Design}{1}\protected@file@percent }
\@writefile{toc}{\contentsline {section}{\numberline {2}Evidence of Development}{1}\protected@file@percent }
\@writefile{toc}{\contentsline {subsection}{\numberline {2.1}Visual Studio Code}{1}\protected@file@percent }
\providecommand*\caption@xref[2]{\@setref\relax\@undefined{#1}}
\newlabel{fig:coffee}{{\caption@xref {fig:coffee}{ on input line 53}}{1}}
\@writefile{toc}{\contentsline {subsection}{\numberline {2.2}phpMyAdmin}{2}\protected@file@percent }
\newlabel{fig:coffee}{{\caption@xref {fig:coffee}{ on input line 71}}{2}}
\@writefile{toc}{\contentsline {subsection}{\numberline {2.3}Git}{2}\protected@file@percent }
\@writefile{toc}{\contentsline {section}{\numberline {3}Evidence of Deployment}{2}\protected@file@percent }
\@writefile{toc}{\contentsline {section}{\numberline {4}Evaluation of Design}{2}\protected@file@percent }
\newlabel{fig:coffee}{{\caption@xref {fig:coffee}{ on input line 91}}{3}}
